{
  "__MODULE_ID__": "lang-fi-fi",
  "__MODULE_TITLE__": "Suomi [ydin] | Finnish [Core]",
  "__MODULE_DESCRIPTION__": "Suomenkielinen käännös Foundry VTT:n käyttöliittymälle. | Finnish translation for the Foundry VTT user interface.",
  "__MODULE_VERSION__": "17.0.1",
  "__MINIMUM_CORE_VERSION__": "10.291",
  "__VERIFIED_CORE_VERSION__": "10.312",
  "__MANIFEST_PLUS_VERSION__": "1.2.0",
  "__MODULE_AUTHORS__": [
    {
      "name": "Demian Wright",
      "discord": "demian.wright"
    }
  ],
  "__MODULE_MEDIA__": [
    {
      "type": "icon",
      "url": "https://assets.gitlab-static.net/uploads/-/system/group/avatar/10425095/Foundry_VTT_Suomi.png",
      "caption": "Icon for the Foundry VTT Suomi translation project."
    },
    {
      "type": "cover",
      "url": "__REPO_RELEASE_IMG_DIR__/cover.png",
      "caption": "Module cover image with the module logo, name, and its description in Finnish."
    },
    {
      "type": "screenshot",
      "url": "__REPO_RELEASE_IMG_DIR__/scene_configuration.png",
      "caption": "Translated scene configuration window."
    },
    {
      "type": "screenshot",
      "url": "__REPO_RELEASE_IMG_DIR__/tinymce.png",
      "caption": "Translated TinyMCE text editor."
    },
    {
      "type": "screenshot",
      "url": "__REPO_RELEASE_IMG_DIR__/map_note_configuration.png",
      "caption": "Translated map note configuration window."
    },
    {
      "type": "screenshot",
      "url": "__REPO_RELEASE_IMG_DIR__/actors_directory.png",
      "caption": "Translated actors directory."
    },
    {
      "type": "screenshot",
      "url": "__REPO_RELEASE_IMG_DIR__/module_information_window_full.png",
      "caption": "Translation information window."
    }
  ],
  "__MODULE_COLOR__": "#18447e",
  "__LANG_NAME_EN__": "Finnish",
  "__LANG_NAME_LOCAL__": "suomi",
  "__LANG_TAG_CANONICAL__": "fi-FI",
  "__LANG_TAG_SHORT__": "fi",
  "__LANG_TAG_TINYMCE__": "fi",
  "__TINYMCE_LANG_VERSION__": "6.1.2",
  "__REPO_BASE_URL__": "https://gitlab.com/foundry-vtt-suomi/fvtt-lang-fi-fi",
  "__REPO_MAIN_BRANCH_NAME__": "main",
  "__DISCORD_SERVER_ID__": "788885085915054091",
  "__DISCORD_INVITE_LINK__": "https://discord.gg/U4y3cNebbg",
  "__DISCORD_SERVER_NAME__": "Foundry VTT Suomi",
  "__REPO_INSTALLATION_HEADER_FI__": "#nopea-asennusohje",
  "__REPO_INSTALLATION_HEADER_EN__": "#quick-installation-guide",
  "__REPO_TINYMCE_README_HEADER_FI__": "#3-lataa-tinymce-k%C3%A4%C3%A4nn%C3%B6s",
  "__REPO_TINYMCE_README_HEADER_EN__": "#3-download-a-tinymce-language-package",
  "__GITHUB_REPO_VERSION_BRANCH_PREFIX__": "v",
  "__REPO_DIST_URL__": "(dynamically created)",
  "__LANG_NAME_FULL__": "(dynamically created)",
  "__LANG_TAG_SHORT_UPPER__": "(dynamically created)",
  "__BUILD_TYPE__": "(dynamically created)",
  "__MODULE_PATH__": "(dynamically created)",
  "__TINYMCE_LANG_ROOT__": "(dynamically created)",
  "__REPO_HOST__": "(dynamically created)",
  "__REPO_MAIN_MANIFEST_URL__": "(dynamically created)",
  "__REPO_RELEASE_DOWNLOAD_URL__": "(dynamically created)",
  "__REPO_RELEASE_LICENSE_URL__": "(dynamically created)",
  "__REPO_RELEASE_README_URL__": "(dynamically created)",
  "__REPO_ISSUES_URL__": "(dynamically created)",
  "__REPO_RELEASES_URL__": "(dynamically created)",
  "__REPO_BRANCHES_URL__": "(dynamically created)",
  "__REPO_RELEASE_MANIFEST_URL_URLENCODED__": "(dynamically created)",
  "__REPO_TINYMCE_README_URL_EN__": "(dynamically created)",
  "__REPO_TINYMCE_README_URL_FI__": "(dynamically created)",
  "__REPO_RELEASE_IMG_DIR__": "(dynamically created)"
}
